<?xml version="1.0" encoding="UTF-8" standalone="no"?>
<!-- Generator: Adobe Illustrator 20.0.0, SVG Export Plug-In . SVG Version: 6.00 Build 0)  -->

<svg
   xmlns:dc="http://purl.org/dc/elements/1.1/"
   xmlns:cc="http://creativecommons.org/ns#"
   xmlns:rdf="http://www.w3.org/1999/02/22-rdf-syntax-ns#"
   xmlns:svg="http://www.w3.org/2000/svg"
   xmlns="http://www.w3.org/2000/svg"
   xmlns:sodipodi="http://sodipodi.sourceforge.net/DTD/sodipodi-0.dtd"
   xmlns:inkscape="http://www.inkscape.org/namespaces/inkscape"
   version="1.1"
   x="0px"
   y="0px"
   viewBox="0 0 1200 1200"
   style="enable-background:new 0 0 1200 1200;"
   xml:space="preserve"
   id="svg3057"
   inkscape:version="0.48.5 r10040"
   width="100%"
   height="100%"
   sodipodi:docname="netatmo-weather-station-dimensions.svg"><metadata
     id="metadata3089"><rdf:RDF><cc:Work
         rdf:about=""><dc:format>image/svg+xml</dc:format><dc:type
           rdf:resource="http://purl.org/dc/dcmitype/StillImage" /><dc:title></dc:title></cc:Work></rdf:RDF></metadata><defs
     id="defs3087" /><sodipodi:namedview
     pagecolor="#ffffff"
     bordercolor="#666666"
     borderopacity="1"
     objecttolerance="10"
     gridtolerance="10"
     guidetolerance="10"
     inkscape:pageopacity="0"
     inkscape:pageshadow="2"
     inkscape:window-width="1920"
     inkscape:window-height="1134"
     id="namedview3085"
     showgrid="false"
     inkscape:zoom="0.56568542"
     inkscape:cx="663.25644"
     inkscape:cy="521.60051"
     inkscape:window-x="0"
     inkscape:window-y="27"
     inkscape:window-maximized="1"
     inkscape:current-layer="svg3057"
     inkscape:snap-smooth-nodes="true"
     inkscape:object-nodes="true" /><style
     type="text/css"
     id="style3059">
	.st0_station{fill:none;stroke:#000000;stroke-width:3;}
	.st1_station{fill:none;stroke:#000000;stroke-width:3;stroke-linecap:round;stroke-linejoin:round;}
</style><path
     id="path3976"
     class="st0_station"
     d="m 910.4,1096.2 61.25,0 0,-564.4 -61.25,0"
     inkscape:connector-curvature="0"
     style="fill:none;stroke:#000000;stroke-width:1;stroke-miterlimit:4;stroke-dasharray:none"
     sodipodi:nodetypes="cccc" /><path
     id="path3970"
     class="st0_station"
     d="m 910.5,1154.2 118.3404,0 0,-622.4 -118.3404,0"
     inkscape:connector-curvature="0"
     style="fill:none;stroke:#000000;stroke-width:1;stroke-miterlimit:4;stroke-dasharray:none"
     sodipodi:nodetypes="cccc" /><path
     id="path3196"
     class="st0_station"
     d="m 910.4,531.8 0,-115.90364 -276.2,0 0,115.90364"
     inkscape:connector-curvature="0"
     style="fill:none;stroke:#000000;stroke-width:1;stroke-opacity:1;stroke-miterlimit:4;stroke-dasharray:none"
     sodipodi:nodetypes="cccc" /><path
     style="fill:none;stroke:#000000;stroke-width:3"
     inkscape:connector-curvature="0"
     d="m 772.3,496.1 c -76.3,0 -138.1,16 -138.1,35.7 v 564.4 58 c 0,19.2 58.5,34.9 131.8,35.7 h 12.6 c 73.4,-0.8 131.8,-16.5 131.8,-35.7 v -58 -564.4 c 0.1,-19.7 -61.8,-35.7 -138.1,-35.7 z"
     class="st0_station"
     id="XMLID_15_" /><path
     style="fill:none;stroke:#000000;stroke-width:3;stroke-linecap:round;stroke-linejoin:round"
     inkscape:connector-curvature="0"
     d="M 789,700.9 V 997.4"
     class="st1_station"
     connector-curvature="0"
     id="path14_4_" /><path
     style="fill:none;stroke:#000000;stroke-width:3;stroke-linecap:round;stroke-linejoin:round"
     inkscape:connector-curvature="0"
     d="m 910.5,531.8 c 0,19.8 -61.8,35.8 -138.2,35.8 -76.3,0 -138.1,-16 -138.1,-35.8 0,-19.7 61.8,-35.7 138.1,-35.7 76.3,0 138.2,16 138.2,35.7 z"
     class="st1_station"
     id="XMLID_13_" /><path
     style="fill:none;stroke:#000000;stroke-width:3;stroke-linecap:round;stroke-linejoin:round"
     inkscape:connector-curvature="0"
     d="m 891.4,531.8 c 0,17 -53.3,30.8 -119.1,30.8 -65.7,0 -119,-13.8 -119,-30.8 0,-17 53.3,-30.8 119,-30.8 65.8,0 119.1,13.9 119.1,30.8 z"
     class="st1_station"
     id="XMLID_12_" /><g
     id="XMLID_28_"><path
       style="fill:none;stroke:#000000;stroke-width:3;stroke-linecap:round;stroke-linejoin:round"
       inkscape:connector-curvature="0"
       d="m 778.7,1190 v -7.9 c 0,-3.3 -2.8,-6 -6.3,-6 -3.5,0 -6.3,2.7 -6.3,6 v 7.9"
       class="st1_station"
       id="XMLID_11_" /><path
       style="fill:none;stroke:#000000;stroke-width:3;stroke-linecap:round;stroke-linejoin:round"
       inkscape:connector-curvature="0"
       d="m 772.3,1132 c -76.3,0 -138.1,-16 -138.1,-35.8 v 58 c 0,19.2 58.5,34.9 131.8,35.7 v -7.9 c 0,-3.3 2.8,-6 6.3,-6 3.5,0 6.3,2.7 6.3,6 v 7.9 c 73.4,-0.8 131.8,-16.5 131.8,-35.7 v -58 c 0.1,19.8 -61.8,35.8 -138.1,35.8 z"
       class="st1_station"
       id="XMLID_10_" /></g><g
     transform="matrix(0.48716198,0,0,-0.4681818,1251.6308,671.92657)"
     id="g148_8_"><path
       style="fill:none;stroke:#000000;stroke-width:3;stroke-linecap:round;stroke-linejoin:round"
       inkscape:connector-curvature="0"
       d="m -949.7,-695.4 c 0,-18.9 -15.3,-34.3 -34.2,-34.3 -18.9,0 -34.2,15.3 -34.2,34.3 v 633.1 c 0,18.9 15.3,34.3 34.2,34.3 18.9,0 34.2,-15.4 34.2,-34.3 v -633.1 z"
       class="st1_station"
       connector-curvature="0"
       id="path150_9_" /></g><g
     id="XMLID_101_"><path
       id="path14_3_"
       connector-curvature="0"
       class="st1_station"
       d="M 444.4,405.5 V 997.4"
       inkscape:connector-curvature="0"
       style="fill:none;stroke:#000000;stroke-width:3;stroke-linecap:round;stroke-linejoin:round" /><path
       id="XMLID_8_"
       class="st1_station"
       d="m 565.8,235.7 c 0,19.7 -61.9,35.7 -138.2,35.7 -76.3,0 -138.2,-16 -138.2,-35.7 0,-19.7 62,-35.7 138.3,-35.7 76.3,0 138.1,16 138.1,35.7 z"
       inkscape:connector-curvature="0"
       style="fill:none;stroke:#000000;stroke-width:3;stroke-linecap:round;stroke-linejoin:round" /><path
       id="XMLID_7_"
       class="st1_station"
       d="M 565.8,1096.3 V 235.7 C 565.8,216 503.9,200 427.6,200 c -76.3,0 -138.2,16 -138.2,35.7 v 860.5 c 0,19.7 61.9,35.7 138.2,35.7 76.4,0.1 138.2,-15.9 138.2,-35.6 z"
       inkscape:connector-curvature="0"
       style="fill:none;stroke:#000000;stroke-width:3;stroke-linecap:round;stroke-linejoin:round" /><path
       id="XMLID_6_"
       class="st1_station"
       d="m 546.7,235.7 c 0,17 -53.3,30.8 -119.1,30.8 -65.7,0 -119,-13.8 -119,-30.8 0,-17 53.3,-30.8 119,-30.8 65.8,0 119.1,13.8 119.1,30.8 z"
       inkscape:connector-curvature="0"
       style="fill:none;stroke:#000000;stroke-width:3;stroke-linecap:round;stroke-linejoin:round" /><path
       id="XMLID_5_"
       class="st1_station"
       d="m 479.2,235.7 c 0,7.3 -23,13.3 -51.5,13.3 -28.4,0 -51.5,-6 -51.5,-13.3 0,-7.3 23,-13.3 51.5,-13.3 28.4,0 51.5,6 51.5,13.3 z"
       inkscape:connector-curvature="0"
       style="fill:none;stroke:#000000;stroke-width:3;stroke-linecap:round;stroke-linejoin:round" /><g
       id="XMLID_19_"><line
         id="XMLID_4_"
         class="st1_station"
         x1="434"
         y1="1190"
         x2="421.39999"
         y2="1190"
         style="fill:none;stroke:#000000;stroke-width:3;stroke-linecap:round;stroke-linejoin:round" /><path
         id="XMLID_17_"
         class="st1_station"
         d="m 427.7,1132 c -76.3,0 -138.2,-16 -138.2,-35.7 v 58 c 0,19.2 58.5,34.8 131.9,35.7 H 434 c 73.4,-0.9 131.8,-16.5 131.8,-35.7 v -58 c 0,19.7 -61.8,35.7 -138.1,35.7 z"
         inkscape:connector-curvature="0"
         style="fill:none;stroke:#000000;stroke-width:3;stroke-linecap:round;stroke-linejoin:round" /></g><g
       id="g148_7_"
       transform="matrix(0.48716198,0,0,-0.4681818,1251.6308,671.92657)"><path
         id="path150_8_"
         connector-curvature="0"
         class="st1_station"
         d="m -1657.1,-695.4 c 0,-18.9 -15.3,-34.3 -34.2,-34.3 -18.9,0 -34.2,15.4 -34.2,34.3 V 568.7 c 0,18.9 15.3,34.3 34.2,34.3 18.9,0 34.2,-15.4 34.2,-34.3 V -695.4 z"
         inkscape:connector-curvature="0"
         style="fill:none;stroke:#000000;stroke-width:3;stroke-linecap:round;stroke-linejoin:round" /></g></g><text
     xml:space="preserve"
     style="font-size:40px;font-style:normal;font-weight:normal;line-height:125%;letter-spacing:0px;word-spacing:0px;fill:#000000;fill-opacity:1;stroke:none;font-family:Sans"
     x="756.60425"
     y="409.80817"
     id="text3198"
     sodipodi:linespacing="125%"><tspan
       sodipodi:role="line"
       id="tspan3200"
       x="756.60425"
       y="409.80817"
       style="font-size:20px;fill:#000000">45</tspan></text>
<text
     sodipodi:linespacing="125%"
     id="text3972"
     y="-1035.7996"
     x="824.06598"
     style="font-size:40px;font-style:normal;font-weight:normal;line-height:125%;letter-spacing:0px;word-spacing:0px;fill:#000000;fill-opacity:1;stroke:none;font-family:Sans"
     xml:space="preserve"
     transform="matrix(0,1,-1,0,0,0)"><tspan
       style="font-size:20px;fill:#000000"
       y="-1035.7996"
       x="824.06598"
       id="tspan3974"
       sodipodi:role="line">105</tspan></text>
<text
     transform="matrix(0,1,-1,0,0,0)"
     xml:space="preserve"
     style="font-size:40px;font-style:normal;font-weight:normal;line-height:125%;letter-spacing:0px;word-spacing:0px;fill:#000000;fill-opacity:1;stroke:none;font-family:Sans"
     x="797.54944"
     y="-977.46326"
     id="text3978"
     sodipodi:linespacing="125%"><tspan
       sodipodi:role="line"
       id="tspan3980"
       x="797.54944"
       y="-977.46326"
       style="font-size:20px;fill:#000000">95</tspan></text>
</svg>