time,CO2,GustAngle,GustStrength,Humidity,Noise,Pressure,Rain,Temperature,WindAngle,WindStrength
2017-09-27 12:20:14,,,,45,,,,29.1,,
2017-09-27 12:21:56,,,,40,,,,31.2,,
2017-09-27 12:22:48,,,,39,,,,32.1,,
2017-09-27 12:23:39,,,,38,,,,32.9,,
2017-09-27 12:25:21,,,,36,,,,34.2,,
2017-09-27 12:26:14,,,,34,,,,34.8,,
2017-09-27 12:27:55,,,,33,,,,35.8,,
2017-09-27 12:28:47,,,,32,,,,36.3,,
2017-09-27 12:30:29,,,,31,,,,37.2,,
2017-09-27 12:31:20,,,,30,,,,37.7,,
2017-09-27 12:32:12,,,,30,,,,38.1,,
2017-09-27 12:33:54,,,,29,,,,38.8,,
2017-09-27 12:34:45,,,,28,,,,39.1,,
2017-09-27 12:36:28,,,,28,,,,39.8,,
2017-09-27 12:37:19,,,,27,,,,40.0,,
2017-09-27 12:38:11,,,,27,,,,40.3,,
2017-09-27 12:39:53,,,,26,,,,40.8,,
2017-09-27 12:40:44,,,,26,,,,41.0,,
2017-09-27 12:42:27,,,,26,,,,41.5,,
2017-09-27 12:43:18,,,,26,,,,41.7,,
2017-09-27 12:44:09,,,,25,,,,41.8,,
2017-09-27 12:45:53,,,,25,,,,42.2,,
2017-09-27 12:46:43,,,,25,,,,42.3,,
2017-09-27 12:47:35,,,,25,,,,42.5,,
2017-09-27 12:49:17,,,,25,,,,42.7,,
