time,CO2,GustAngle,GustStrength,Humidity,Noise,Pressure,Rain,Temperature,WindAngle,WindStrength
2017-09-27 13:59:16,,,,61,,,,22.7,,
2017-09-27 14:00:06,,,,60,,,,23.1,,
2017-09-27 14:00:57,,,,59,,,,23.4,,
2017-09-27 14:02:40,,,,57,,,,23.9,,
2017-09-27 14:03:31,,,,56,,,,24.1,,
2017-09-27 14:05:15,,,,55,,,,24.5,,
2017-09-27 14:06:05,,,,55,,,,24.7,,
2017-09-27 14:06:56,,,,54,,,,24.9,,
2017-09-27 14:08:39,,,,53,,,,25.2,,
2017-09-27 14:09:30,,,,53,,,,25.3,,
