time,CO2,GustAngle,GustStrength,Humidity,Noise,Pressure,Rain,Temperature,WindAngle,WindStrength
2017-08-29 13:42:31,,,,92,,,,6.9,,
2017-08-29 13:44:14,,,,97,,,,8.6,,
2017-08-29 13:45:05,,,,97,,,,9.3,,
2017-08-29 13:45:56,,,,98,,,,10.0,,
2017-08-29 13:46:47,,,,98,,,,10.6,,
2017-08-29 13:48:30,,,,98,,,,11.6,,
2017-08-29 13:49:21,,,,98,,,,12.1,,
2017-08-29 13:50:12,,,,98,,,,12.5,,
2017-08-29 13:51:55,,,,98,,,,13.3,,
2017-08-29 13:52:46,,,,97,,,,13.6,,
2017-08-29 13:53:38,,,,97,,,,14.0,,
2017-08-29 13:55:20,,,,94,,,,14.6,,
2017-08-29 13:56:11,,,,93,,,,15.0,,
2017-08-29 13:57:03,,,,91,,,,15.3,,
2017-08-29 13:57:54,,,,89,,,,15.7,,
2017-08-29 13:59:36,,,,84,,,,16.3,,
2017-08-29 14:00:28,,,,83,,,,16.6,,
2017-08-29 14:01:19,,,,81,,,,16.9,,
2017-08-29 14:03:01,,,,79,,,,17.5,,
2017-08-29 14:03:53,,,,78,,,,17.8,,
2017-08-29 14:04:44,,,,77,,,,18.0,,
2017-08-29 14:06:27,,,,75,,,,18.5,,
2017-08-29 14:07:18,,,,74,,,,18.7,,
2017-08-29 14:08:09,,,,73,,,,19.0,,
2017-08-29 14:09:52,,,,72,,,,19.4,,
2017-08-29 14:10:43,,,,71,,,,19.6,,
2017-08-29 14:11:34,,,,70,,,,19.8,,
2017-08-29 14:13:17,,,,69,,,,20.1,,
2017-08-29 14:14:08,,,,68,,,,20.3,,
2017-08-29 14:14:59,,,,67,,,,20.5,,
2017-08-29 14:15:51,,,,67,,,,20.6,,
2017-08-29 14:17:33,,,,66,,,,20.9,,
2017-08-29 14:18:24,,,,65,,,,21.1,,
2017-08-29 14:19:16,,,,65,,,,21.2,,
2017-08-29 14:20:58,,,,63,,,,21.5,,
2017-08-29 14:21:49,,,,63,,,,21.6,,
2017-08-29 14:22:41,,,,62,,,,21.7,,
2017-08-29 14:24:23,,,,61,,,,21.9,,
2017-08-29 14:25:14,,,,61,,,,22.1,,
2017-08-29 14:26:06,,,,60,,,,22.2,,
2017-08-29 14:27:48,,,,60,,,,22.4,,
2017-08-29 14:28:40,,,,59,,,,22.5,,
2017-08-29 14:29:31,,,,59,,,,22.5,,
2017-08-29 14:31:13,,,,59,,,,22.7,,
2017-08-29 14:32:05,,,,58,,,,22.8,,
2017-08-29 14:32:56,,,,58,,,,22.9,,
2017-08-29 14:33:47,,,,58,,,,23.0,,
2017-08-29 14:35:29,,,,58,,,,23.2,,
2017-08-29 14:36:21,,,,58,,,,23.2,,
2017-08-29 14:38:04,,,,57,,,,23.4,,
2017-08-29 14:38:55,,,,57,,,,23.5,,
2017-08-29 14:39:46,,,,57,,,,23.5,,
2017-08-29 14:41:29,,,,57,,,,23.6,,
2017-08-29 14:42:20,,,,57,,,,23.7,,
2017-08-29 14:43:11,,,,57,,,,23.8,,
2017-08-29 14:44:54,,,,56,,,,23.9,,
2017-08-29 14:45:45,,,,56,,,,23.9,,
2017-08-29 14:46:36,,,,56,,,,24.0,,
2017-08-29 14:48:19,,,,56,,,,24.1,,
2017-08-29 14:49:10,,,,56,,,,24.1,,
