time,CO2,GustAngle,GustStrength,Humidity,Noise,Pressure,Rain,Temperature,WindAngle,WindStrength
2017-08-30 09:37:59,,,,27,,,,43.7,,
2017-08-30 09:38:51,,,,28,,,,42.4,,
2017-08-30 09:39:42,,,,29,,,,41.3,,
2017-08-30 09:41:25,,,,32,,,,39.3,,
2017-08-30 09:42:16,,,,33,,,,38.4,,
2017-08-30 09:43:07,,,,34,,,,37.6,,
2017-08-30 09:44:50,,,,36,,,,36.2,,
2017-08-30 09:45:41,,,,37,,,,35.6,,
2017-08-30 09:46:32,,,,37,,,,35.1,,
2017-08-30 09:48:15,,,,39,,,,34.1,,
2017-08-30 09:49:06,,,,40,,,,33.7,,
2017-08-30 09:49:57,,,,40,,,,33.3,,
2017-08-30 09:51:40,,,,42,,,,32.6,,
2017-08-30 09:52:31,,,,42,,,,32.2,,
2017-08-30 09:53:22,,,,43,,,,31.9,,
2017-08-30 09:55:05,,,,44,,,,31.4,,
2017-08-30 09:55:56,,,,44,,,,31.1,,
2017-08-30 09:56:47,,,,45,,,,30.9,,
2017-08-30 09:58:30,,,,46,,,,30.4,,
2017-08-30 09:59:21,,,,46,,,,30.2,,
2017-08-30 10:00:12,,,,47,,,,30.0,,
2017-08-30 10:01:55,,,,48,,,,29.7,,
2017-08-30 10:02:46,,,,48,,,,29.5,,
2017-08-30 10:03:38,,,,48,,,,29.3,,
2017-08-30 10:05:20,,,,49,,,,29.1,,
2017-08-30 10:06:11,,,,49,,,,28.9,,
2017-08-30 10:07:03,,,,50,,,,28.8,,
2017-08-30 10:08:45,,,,50,,,,28.5,,
2017-08-30 10:09:36,,,,51,,,,28.4,,
2017-08-30 10:10:28,,,,51,,,,28.3,,
2017-08-30 10:12:10,,,,51,,,,28.1,,
2017-08-30 10:13:01,,,,51,,,,28.0,,
2017-08-30 10:13:53,,,,52,,,,28.0,,
2017-08-30 10:15:35,,,,52,,,,27.8,,
2017-08-30 10:16:27,,,,52,,,,27.7,,
2017-08-30 10:17:18,,,,53,,,,27.6,,
2017-08-30 10:19:00,,,,53,,,,27.5,,
2017-08-30 10:19:52,,,,53,,,,27.4,,
2017-08-30 10:21:34,,,,53,,,,27.3,,
2017-08-30 10:22:25,,,,54,,,,27.2,,
2017-08-30 10:23:17,,,,54,,,,27.2,,
2017-08-30 10:24:59,,,,54,,,,27.1,,
