time,CO2,GustAngle,GustStrength,Humidity,Noise,Pressure,Rain,Temperature,WindAngle,WindStrength
2017-08-30 09:37:44,,,,28,,,,42.4,,
2017-08-30 09:38:35,,,,29,,,,41.4,,
2017-08-30 09:40:17,,,,31,,,,39.5,,
2017-08-30 09:41:08,,,,32,,,,38.7,,
2017-08-30 09:42:00,,,,33,,,,37.9,,
2017-08-30 09:43:42,,,,35,,,,36.6,,
2017-08-30 09:44:34,,,,36,,,,36.0,,
2017-08-30 09:45:26,,,,37,,,,35.4,,
2017-08-30 09:47:08,,,,39,,,,34.4,,
2017-08-30 09:47:59,,,,39,,,,33.9,,
2017-08-30 09:48:50,,,,40,,,,33.5,,
2017-08-30 09:50:33,,,,41,,,,32.8,,
2017-08-30 09:51:24,,,,42,,,,32.4,,
2017-08-30 09:52:16,,,,43,,,,32.1,,
2017-08-30 09:53:58,,,,44,,,,31.5,,
2017-08-30 09:54:50,,,,44,,,,31.2,,
2017-08-30 09:55:40,,,,45,,,,31.0,,
2017-08-30 09:57:23,,,,46,,,,30.5,,
2017-08-30 09:58:15,,,,46,,,,30.3,,
2017-08-30 09:59:05,,,,47,,,,30.1,,
2017-08-30 10:00:48,,,,47,,,,29.7,,
2017-08-30 10:01:40,,,,48,,,,29.5,,
2017-08-30 10:02:30,,,,48,,,,29.4,,
2017-08-30 10:04:13,,,,49,,,,29.1,,
2017-08-30 10:05:05,,,,49,,,,28.9,,
2017-08-30 10:05:55,,,,50,,,,28.8,,
2017-08-30 10:07:38,,,,50,,,,28.5,,
2017-08-30 10:08:29,,,,51,,,,28.4,,
2017-08-30 10:09:20,,,,51,,,,28.3,,
2017-08-30 10:11:03,,,,51,,,,28.1,,
2017-08-30 10:11:54,,,,52,,,,28.0,,
2017-08-30 10:12:45,,,,52,,,,27.9,,
2017-08-30 10:14:28,,,,52,,,,27.7,,
2017-08-30 10:15:19,,,,52,,,,27.7,,
2017-08-30 10:16:11,,,,53,,,,27.6,,
2017-08-30 10:17:53,,,,53,,,,27.4,,
2017-08-30 10:18:44,,,,53,,,,27.4,,
2017-08-30 10:19:35,,,,53,,,,27.3,,
2017-08-30 10:21:18,,,,54,,,,27.2,,
2017-08-30 10:22:09,,,,54,,,,27.2,,
2017-08-30 10:23:52,,,,54,,,,27.0,,
2017-08-30 10:24:44,,,,54,,,,27.0,,
