time,CO2,GustAngle,GustStrength,Humidity,Noise,Pressure,Rain,Temperature,WindAngle,WindStrength
2017-09-21 08:00:46+00:00,,,,24,,,,48.8,,
2017-09-21 08:01:37+00:00,,,,24,,,,48.8,,
2017-09-21 08:02:28+00:00,,,,24,,,,48.8,,
2017-09-21 08:04:10+00:00,,,,23,,,,48.9,,
2017-09-21 08:05:01+00:00,,,,23,,,,48.9,,
2017-09-21 08:05:53+00:00,,,,23,,,,48.9,,
2017-09-21 08:06:44+00:00,,,,23,,,,48.9,,
2017-09-21 08:08:27+00:00,,,,23,,,,48.8,,
2017-09-21 08:09:18+00:00,,,,23,,,,48.8,,
2017-09-21 08:10:09+00:00,,,,23,,,,48.8,,
2017-09-21 08:11:00+00:00,,,,23,,,,48.7,,
2017-09-21 08:11:52+00:00,,,,23,,,,48.7,,
2017-09-21 08:13:34+00:00,,,,23,,,,48.6,,
2017-09-21 08:14:26+00:00,,,,23,,,,48.5,,
2017-09-21 08:15:18+00:00,,,,23,,,,48.5,,
2017-09-21 08:16:08+00:00,,,,23,,,,48.5,,
2017-09-21 08:16:59+00:00,,,,23,,,,48.4,,
2017-09-21 08:18:42+00:00,,,,23,,,,48.2,,
2017-09-21 08:19:33+00:00,,,,23,,,,48.2,,
2017-09-21 08:20:25+00:00,,,,24,,,,48.1,,
2017-09-21 08:21:15+00:00,,,,24,,,,48.0,,
2017-09-21 08:22:58+00:00,,,,24,,,,47.9,,
2017-09-21 08:23:50+00:00,,,,24,,,,47.8,,
2017-09-21 08:24:40+00:00,,,,24,,,,47.8,,
2017-09-21 08:25:33+00:00,,,,24,,,,47.7,,
2017-09-21 08:27:15+00:00,,,,24,,,,47.6,,
