<?xml version="1.0" encoding="UTF-8" standalone="no"?>
<!-- Created with Inkscape (http://www.inkscape.org/) -->

<svg
   xmlns:dc="http://purl.org/dc/elements/1.1/"
   xmlns:cc="http://creativecommons.org/ns#"
   xmlns:rdf="http://www.w3.org/1999/02/22-rdf-syntax-ns#"
   xmlns:svg="http://www.w3.org/2000/svg"
   xmlns="http://www.w3.org/2000/svg"
   xmlns:xlink="http://www.w3.org/1999/xlink"
   xmlns:sodipodi="http://sodipodi.sourceforge.net/DTD/sodipodi-0.dtd"
   xmlns:inkscape="http://www.inkscape.org/namespaces/inkscape"
   width="210mm"
   height="297mm"
   viewBox="0 0 744.09448819 1052.3622047"
   id="svg2"
   version="1.1"
   inkscape:version="0.91 r13725"
   sodipodi:docname="netatmo-module.svg"
   enable-background="new">
  <defs
     id="defs4">
    <linearGradient
       id="linearGradient4221"
       inkscape:collect="always">
      <stop
         id="stop4223"
         offset="0"
         style="stop-color:#300000;stop-opacity:1" />
      <stop
         id="stop4225"
         offset="1"
         style="stop-color:#ff0900;stop-opacity:1" />
    </linearGradient>
    <linearGradient
       inkscape:collect="always"
       id="linearGradient4185">
      <stop
         style="stop-color:#000000;stop-opacity:1"
         offset="0"
         id="stop4187" />
      <stop
         style="stop-color:#0400ff;stop-opacity:1"
         offset="1"
         id="stop4189" />
    </linearGradient>
    <linearGradient
       inkscape:collect="always"
       id="linearGradient4443">
      <stop
         style="stop-color:#d8d8d8;stop-opacity:1"
         offset="0"
         id="stop4445" />
      <stop
         style="stop-color:#585858;stop-opacity:1"
         offset="1"
         id="stop4447" />
    </linearGradient>
    <filter
       inkscape:collect="always"
       style="color-interpolation-filters:sRGB"
       id="filter4439"
       x="-0.083750801"
       width="1.1675016"
       y="-0.31139738"
       height="1.6227948">
      <feGaussianBlur
         inkscape:collect="always"
         stdDeviation="2.827426"
         id="feGaussianBlur4441" />
    </filter>
    <radialGradient
       inkscape:collect="always"
       xlink:href="#linearGradient4443"
       id="radialGradient4451"
       cx="495.05151"
       cy="603.90833"
       fx="495.05151"
       fy="603.90833"
       r="81.677735"
       gradientTransform="matrix(1.1822788,0,2.8522398e-8,13.848442,-214.12064,-7821.6319)"
       gradientUnits="userSpaceOnUse" />
    <radialGradient
       inkscape:collect="always"
       xlink:href="#linearGradient4185"
       id="radialGradient4193"
       cx="372.04724"
       cy="526.18109"
       fx="372.04724"
       fy="526.18109"
       r="372.04724"
       gradientTransform="matrix(1.5855355,-1.2115714e-8,-4.7979381e-8,2.3265659,-217.84679,-698.0138)"
       gradientUnits="userSpaceOnUse" />
    <radialGradient
       inkscape:collect="always"
       xlink:href="#linearGradient4221"
       id="radialGradient4205"
       cx="372.04724"
       cy="526.18109"
       fx="372.04724"
       fy="526.18109"
       r="372.04724"
       gradientTransform="matrix(1.5567649,0,0,2.2017104,-207.14286,-632.31728)"
       gradientUnits="userSpaceOnUse" />
    <radialGradient
       inkscape:collect="always"
       xlink:href="#linearGradient4443"
       id="radialGradient4203"
       gradientUnits="userSpaceOnUse"
       gradientTransform="matrix(1.1822788,0,2.8522398e-8,13.848442,-214.12064,-7821.6319)"
       cx="495.05151"
       cy="603.90833"
       fx="495.05151"
       fy="603.90833"
       r="81.677735" />
  </defs>
  <sodipodi:namedview
     id="base"
     pagecolor="#ffffff"
     bordercolor="#666666"
     borderopacity="1.0"
     inkscape:pageopacity="0.0"
     inkscape:pageshadow="2"
     inkscape:zoom="0.7"
     inkscape:cx="-29.69526"
     inkscape:cy="541.30517"
     inkscape:document-units="px"
     inkscape:current-layer="g4187"
     showgrid="false"
     inkscape:snap-smooth-nodes="true"
     inkscape:object-nodes="true"
     inkscape:window-width="1920"
     inkscape:window-height="1021"
     inkscape:window-x="0"
     inkscape:window-y="35"
     inkscape:window-maximized="1"
     inkscape:snap-page="true" />
  <metadata
     id="metadata7">
    <rdf:RDF>
      <cc:Work
         rdf:about="">
        <dc:format>image/svg+xml</dc:format>
        <dc:type
           rdf:resource="http://purl.org/dc/dcmitype/StillImage" />
        <dc:title />
      </cc:Work>
    </rdf:RDF>
  </metadata>
  <g
     inkscape:groupmode="layer"
     id="layer5"
     inkscape:label="background-red"
     style="display:inline">
    <rect
       style="opacity:1;fill:url(#radialGradient4205);fill-opacity:1;stroke:none;stroke-width:1.31916249;stroke-opacity:1"
       id="rect4459"
       width="744.09448"
       height="1052.3622"
       x="-7.1054274e-14"
       y="-1.0999972e-13" />
  </g>
  <g
     inkscape:groupmode="layer"
     id="layer6"
     inkscape:label="background-blue"
     style="display:inline">
    <rect
       y="-1.0999972e-13"
       x="-7.1054274e-14"
       height="1052.3622"
       width="744.09448"
       id="rect4472"
       style="display:inline;opacity:1;fill:url(#radialGradient4193);fill-opacity:1;stroke:none;stroke-width:1.31916249;stroke-opacity:1" />
  </g>
  <g
     inkscape:groupmode="layer"
     id="layer4"
     inkscape:label="original"
     style="display:inline">
    <g
       style="display:inline"
       id="Calque_1"
       transform="matrix(0.59143448,0,0,0.59143448,25.070752,99.797926)">
      <g
         id="g3415">
        <g
           id="XMLID_102_">
          <path
             d="m 772.3,496.1 c -76.3,0 -138.1,16 -138.1,35.7 l 0,564.4 0,58 c 0,19.2 58.5,34.9 131.8,35.7 l 12.6,0 c 73.4,-0.8 131.8,-16.5 131.8,-35.7 l 0,-58 0,-564.4 c 0.1,-19.7 -61.8,-35.7 -138.1,-35.7 z"
             class="st0_station"
             id="XMLID_15_"
             inkscape:connector-curvature="0"
             style="fill:none;stroke:#000000;stroke-width:3" />
          <path
             d="m 789,700.9 0,296.5"
             class="st1_station"
             connector-curvature="0"
             id="path14_4_"
             inkscape:connector-curvature="0"
             style="fill:none;stroke:#000000;stroke-width:3;stroke-linecap:round;stroke-linejoin:round" />
          <path
             d="m 910.5,531.8 c 0,19.8 -61.8,35.8 -138.2,35.8 -76.3,0 -138.1,-16 -138.1,-35.8 0,-19.7 61.8,-35.7 138.1,-35.7 76.3,0 138.2,16 138.2,35.7 z"
             class="st1_station"
             id="XMLID_13_"
             inkscape:connector-curvature="0"
             style="fill:none;stroke:#000000;stroke-width:3;stroke-linecap:round;stroke-linejoin:round" />
          <path
             d="m 891.4,531.8 c 0,17 -53.3,30.8 -119.1,30.8 -65.7,0 -119,-13.8 -119,-30.8 0,-17 53.3,-30.8 119,-30.8 65.8,0 119.1,13.9 119.1,30.8 z"
             class="st1_station"
             id="XMLID_12_"
             inkscape:connector-curvature="0"
             style="fill:none;stroke:#000000;stroke-width:3;stroke-linecap:round;stroke-linejoin:round" />
          <g
             id="XMLID_28_">
            <path
               d="m 778.7,1190 0,-7.9 c 0,-3.3 -2.8,-6 -6.3,-6 -3.5,0 -6.3,2.7 -6.3,6 l 0,7.9"
               class="st1_station"
               id="XMLID_11_"
               inkscape:connector-curvature="0"
               style="fill:none;stroke:#000000;stroke-width:3;stroke-linecap:round;stroke-linejoin:round" />
            <path
               d="m 772.3,1132 c -76.3,0 -138.1,-16 -138.1,-35.8 l 0,58 c 0,19.2 58.5,34.9 131.8,35.7 l 0,-7.9 c 0,-3.3 2.8,-6 6.3,-6 3.5,0 6.3,2.7 6.3,6 l 0,7.9 c 73.4,-0.8 131.8,-16.5 131.8,-35.7 l 0,-58 c 0.1,19.8 -61.8,35.8 -138.1,35.8 z"
               class="st1_station"
               id="XMLID_10_"
               inkscape:connector-curvature="0"
               style="fill:none;stroke:#000000;stroke-width:3;stroke-linecap:round;stroke-linejoin:round" />
          </g>
          <g
             transform="matrix(0.48716198,0,0,-0.4681818,1251.6308,671.92657)"
             id="g148_8_">
            <path
               d="m -949.7,-695.4 c 0,-18.9 -15.3,-34.3 -34.2,-34.3 -18.9,0 -34.2,15.3 -34.2,34.3 l 0,633.1 c 0,18.9 15.3,34.3 34.2,34.3 18.9,0 34.2,-15.4 34.2,-34.3 l 0,-633.1 z"
               class="st1_station"
               connector-curvature="0"
               id="path150_9_"
               inkscape:connector-curvature="0"
               style="fill:none;stroke:#000000;stroke-width:3;stroke-linecap:round;stroke-linejoin:round" />
          </g>
        </g>
        <g
           id="XMLID_101_">
          <path
             d="m 444.4,405.5 0,591.9"
             class="st1_station"
             connector-curvature="0"
             id="path14_3_"
             inkscape:connector-curvature="0"
             style="fill:none;stroke:#000000;stroke-width:3;stroke-linecap:round;stroke-linejoin:round" />
          <path
             d="m 565.8,235.7 c 0,19.7 -61.9,35.7 -138.2,35.7 -76.3,0 -138.2,-16 -138.2,-35.7 0,-19.7 62,-35.7 138.3,-35.7 76.3,0 138.1,16 138.1,35.7 z"
             class="st1_station"
             id="XMLID_8_"
             inkscape:connector-curvature="0"
             style="fill:none;stroke:#000000;stroke-width:3;stroke-linecap:round;stroke-linejoin:round" />
          <path
             d="m 565.8,1096.3 0,-860.6 C 565.8,216 503.9,200 427.6,200 c -76.3,0 -138.2,16 -138.2,35.7 l 0,860.5 c 0,19.7 61.9,35.7 138.2,35.7 76.4,0.1 138.2,-15.9 138.2,-35.6 z"
             class="st1_station"
             id="XMLID_7_"
             inkscape:connector-curvature="0"
             style="fill:none;stroke:#000000;stroke-width:3;stroke-linecap:round;stroke-linejoin:round" />
          <path
             d="m 546.7,235.7 c 0,17 -53.3,30.8 -119.1,30.8 -65.7,0 -119,-13.8 -119,-30.8 0,-17 53.3,-30.8 119,-30.8 65.8,0 119.1,13.8 119.1,30.8 z"
             class="st1_station"
             id="XMLID_6_"
             inkscape:connector-curvature="0"
             style="fill:none;stroke:#000000;stroke-width:3;stroke-linecap:round;stroke-linejoin:round" />
          <path
             d="m 479.2,235.7 c 0,7.3 -23,13.3 -51.5,13.3 -28.4,0 -51.5,-6 -51.5,-13.3 0,-7.3 23,-13.3 51.5,-13.3 28.4,0 51.5,6 51.5,13.3 z"
             class="st1_station"
             id="XMLID_5_"
             inkscape:connector-curvature="0"
             style="fill:none;stroke:#000000;stroke-width:3;stroke-linecap:round;stroke-linejoin:round" />
          <g
             id="XMLID_19_">
            <line
               y2="1190"
               x2="421.39999"
               y1="1190"
               x1="434"
               class="st1_station"
               id="XMLID_4_"
               style="fill:none;stroke:#000000;stroke-width:3;stroke-linecap:round;stroke-linejoin:round" />
            <path
               d="m 427.7,1132 c -76.3,0 -138.2,-16 -138.2,-35.7 l 0,58 c 0,19.2 58.5,34.8 131.9,35.7 l 12.6,0 c 73.4,-0.9 131.8,-16.5 131.8,-35.7 l 0,-58 c 0,19.7 -61.8,35.7 -138.1,35.7 z"
               class="st1_station"
               id="XMLID_17_"
               inkscape:connector-curvature="0"
               style="fill:none;stroke:#000000;stroke-width:3;stroke-linecap:round;stroke-linejoin:round" />
          </g>
          <g
             transform="matrix(0.48716198,0,0,-0.4681818,1251.6308,671.92657)"
             id="g148_7_">
            <path
               d="m -1657.1,-695.4 c 0,-18.9 -15.3,-34.3 -34.2,-34.3 -18.9,0 -34.2,15.4 -34.2,34.3 l 0,1264.1 c 0,18.9 15.3,34.3 34.2,34.3 18.9,0 34.2,-15.4 34.2,-34.3 l 0,-1264.1 z"
               class="st1_station"
               connector-curvature="0"
               id="path150_8_"
               inkscape:connector-curvature="0"
               style="fill:none;stroke:#000000;stroke-width:3;stroke-linecap:round;stroke-linejoin:round" />
          </g>
        </g>
      </g>
    </g>
  </g>
  <g
     inkscape:groupmode="layer"
     id="layer1"
     style="display:inline;opacity:1"
     inkscape:label="outdoor-module">
    <g
       id="g4178"
       transform="translate(-9.0551168e-7,-8.6779515)">
      <path
         id="rect3406"
         d="m 290.36951,350.80444 0,368.10937 a 81.677132,21.96719 0 0 0 81.67774,21.9668 81.677132,21.96719 0 0 0 81.67773,-21.9668 l 0,-368.10937 a 81.677132,21.96719 0 0 1 -81.67773,21.96679 81.677132,21.96719 0 0 1 -81.67774,-21.96679 z"
         style="fill:url(#radialGradient4451);fill-opacity:1;stroke:none"
         inkscape:connector-curvature="0" />
      <ellipse
         ry="21.96719"
         rx="81.677132"
         cy="350.80469"
         cx="372.04724"
         id="path4844"
         style="fill:#f9f9f9;fill-opacity:1;stroke:none" />
      <path
         id="rect4858"
         d="m 290.36951,684.61108 0,34.30273 a 81.677132,21.96719 0 0 0 81.67774,21.9668 81.677132,21.96719 0 0 0 81.67773,-21.9668 l 0,-34.30273 -0.14844,0 a 81.677132,21.96719 0 0 1 -81.52929,21.17187 81.677132,21.96719 0 0 1 -81.57227,-21.17187 l -0.10547,0 z"
         style="fill:#ebebeb;fill-opacity:1;stroke:none"
         inkscape:connector-curvature="0" />
      <path
         inkscape:connector-curvature="0"
         id="rect4871"
         d="m 372.05603,441.77514 a 9.8697939,9.1556463 0 0 0 -9.8711,9.15625 l 0,174.95313 a 9.8697939,9.1556463 0 0 0 -0.0156,0.29296 9.8697939,9.1556463 0 0 0 9.87109,9.1543 9.8697939,9.1556463 0 0 0 9.86914,-9.1543 9.8697939,9.1556463 0 0 0 -0.0156,-0.39843 l 0,-174.26172 a 9.8697939,9.1556463 0 0 0 0.0312,-0.58594 9.8697939,9.1556463 0 0 0 -9.86914,-9.15625 z"
         style="fill:#e2e2e2;fill-opacity:1;stroke:none" />
      <ellipse
         style="fill:#e6e6e6;fill-opacity:1;stroke:none;filter:url(#filter4439)"
         id="ellipse4217"
         cx="372.04724"
         cy="350.80469"
         rx="40.511986"
         ry="10.895761" />
    </g>
  </g>
  <g
     inkscape:label="indoor-module"
     style="display:inline;opacity:1"
     id="g4187"
     inkscape:groupmode="layer">
    <g
       transform="translate(-9.0551168e-7,-115.82081)"
       id="g4189">
      <path
         inkscape:connector-curvature="0"
         style="fill:url(#radialGradient4203);fill-opacity:1;stroke:none"
         d="m 290.36951,350.80444 0,550.96652 c 8e-4,12.13205 36.56903,21.96689 81.67774,21.9668 45.1087,9e-5 81.67693,-9.83475 81.67773,-21.9668 l 0,-550.96652 c -8.2e-4,12.13205 -36.56904,21.96688 -81.67773,21.96679 -45.10869,9e-5 -81.67692,-9.83474 -81.67774,-21.96679 z"
         id="path4191"
         sodipodi:nodetypes="ccsccsc" />
      <ellipse
         style="fill:#f9f9f9;fill-opacity:1;stroke:none"
         id="ellipse4193"
         cx="372.04724"
         cy="350.80469"
         ry="21.96719"
         rx="81.677132" />
      <path
         inkscape:connector-curvature="0"
         style="fill:#ebebeb;fill-opacity:1;stroke:none"
         d="m 290.36951,867.46823 0,34.30273 c 8e-4,12.13205 36.56903,21.96689 81.67774,21.9668 45.1087,9e-5 81.67693,-9.83475 81.67773,-21.9668 l 0,-34.30273 -0.14844,0 c -1.59015,11.80507 -37.60761,21.15823 -81.52929,21.17187 -43.93835,-0.007 -79.98149,-9.36233 -81.57227,-21.17187 z"
         id="path4195"
         sodipodi:nodetypes="ccscccccc" />
      <path
         style="fill:#e2e2e2;fill-opacity:1;stroke:none"
         d="m 372.05603,441.77514 c -5.4517,-6.7e-4 -9.87146,4.09902 -9.8711,9.15625 l 0,357.81028 c -0.007,0.0976 -0.0121,0.19523 -0.0156,0.29296 8e-4,5.05646 4.42021,9.15496 9.87109,9.1543 5.45011,-3.4e-4 9.86834,-4.09854 9.86914,-9.1543 -0.002,-0.1329 -0.007,-0.26574 -0.0156,-0.39843 l 0,-357.11887 c 0.0171,-0.19495 0.0276,-0.39037 0.0312,-0.58594 3.6e-4,-5.05652 -4.4182,-9.15592 -9.86914,-9.15625 z"
         id="path4197"
         inkscape:connector-curvature="0"
         sodipodi:nodetypes="ccccccccccc" />
      <ellipse
         cy="350.80469"
         cx="372.04724"
         id="ellipse4199"
         style="fill:#e6e6e6;fill-opacity:1;stroke:none;filter:url(#filter4439)"
         ry="10.895761"
         rx="40.511986" />
    </g>
  </g>
  <g
     inkscape:groupmode="layer"
     id="layer2"
     style="display:inline"
     inkscape:label="wind">
    <path
       style="fill:none;fill-rule:evenodd;stroke:#000000;stroke-width:1px;stroke-linecap:butt;stroke-linejoin:miter;stroke-opacity:1"
       d="m 155.56349,324.04222 c 419.21331,-11.11168 408.10163,15.15229 408.10163,15.15229"
       id="path4188"
       inkscape:connector-curvature="0" />
    <path
       inkscape:connector-curvature="0"
       id="path4190"
       d="M 155.56349,382.14815 C 574.7768,393.25983 563.66512,366.99586 563.66512,366.99586"
       style="fill:none;fill-rule:evenodd;stroke:#000000;stroke-width:1px;stroke-linecap:butt;stroke-linejoin:miter;stroke-opacity:1" />
  </g>
  <g
     inkscape:groupmode="layer"
     id="layer3"
     inkscape:label="rain"
     style="display:inline">
    <path
       style="fill:#0000ff;fill-rule:evenodd;stroke:#000000;stroke-width:1px;stroke-linecap:butt;stroke-linejoin:miter;stroke-opacity:1"
       d="m 450.52804,405.86457 c -1.62868,60.4627 -41.29265,63.6396 -77.27667,63.6396 -35.98402,0 -76.26652,-0.11583 -76.26652,-57.57868 0,-27.15829 31.19112,-66.67007 76.26652,-150.51273 39.01448,80.8122 78.03974,116.12373 77.27667,144.45181 z"
       id="path3345"
       inkscape:connector-curvature="0"
       sodipodi:nodetypes="ssscs" />
  </g>
  <style
     id="style3412"
     type="text/css">
	.st0_station{fill:none;stroke:#000000;stroke-width:3;}
	.st1_station{fill:none;stroke:#000000;stroke-width:3;stroke-linecap:round;stroke-linejoin:round;}
</style>
</svg>
